Timestamp,BandwidthPerSec,TotalBandwidth
1.0,693,693
2.0,450,1143
3.0,3850,4993
4.0,450,5443
5.0,450,5893
6.0,450,6343
7.0,450,6793
8.0,450,7243
9.0,450,7693
10.0,450,8143
11.0,450,8593
12.0,450,9043
13.0,450,9493
14.0,450,9943
15.0,450,10393
16.0,450,10843
17.0,450,11293
18.0,450,11743
19.0,450,12193
20.0,450,12643
21.0,450,13093
22.0,450,13543
23.0,450,13993
24.0,450,14443
25.0,450,14893
26.0,450,15343
27.0,450,15793
28.0,450,16243
29.0,450,16693
30.0,10441,27134
31.0,490200,517334
32.0,490450,1007784
33.0,500250,1508034
34.0,490450,1998484
35.0,490450,2488934
36.0,490450,2979384
37.0,490450,3469834
38.0,480650,3950484
39.0,490450,4440934
40.0,490450,4931384
41.0,450,4931834
42.0,450,4932284
43.0,450,4932734
44.0,450,4933184
45.0,450,4933634
46.0,450,4934084
47.0,450,4934534
48.0,450,4934984
49.0,450,4935434
50.0,450,4935884
51.0,450,4936334
52.0,450,4936784
53.0,450,4937234
54.0,450,4937684
55.0,450,4938134
56.0,450,4938584
57.0,450,4939034
58.0,450,4939484
59.0,450,4939934
60.0,10441,4950375
61.0,500000,5450375
62.0,490450,5940825
63.0,490450,6431275
64.0,490450,6921725
65.0,500441,7422166
66.0,980200,8402366
67.0,970650,9373016
68.0,980450,10353466
69.0,980450,11333916
70.0,980450,12314366
71.0,490450,12804816
72.0,490450,13295266
73.0,490450,13785716
74.0,490450,14276166
75.0,490450,14766616
76.0,450,14767066
77.0,450,14767516
78.0,450,14767966
79.0,450,14768416
80.0,450,14768866
81.0,450,14769316
82.0,450,14769766
83.0,450,14770216
84.0,450,14770666
85.0,450,14771116
86.0,450,14771566
87.0,450,14772016
88.0,450,14772466
89.0,450,14772916
90.0,450,14773366
91.0,1499673,16273039
92.0,1470450,17743489
93.0,1470450,19213939
94.0,1470450,20684389
95.0,1470450,22154839
96.0,1470450,23625289
97.0,1470450,25095739
98.0,1470450,26566189
99.0,1470450,28036639
100.0,1470450,29507089
101.0,450,29507539
102.0,450,29507989
103.0,450,29508439
104.0,450,29508889
105.0,450,29509339
106.0,450,29509789
107.0,450,29510239
108.0,450,29510689
109.0,450,29511139
110.0,450,29511589
111.0,450,29512039
112.0,450,29512489
113.0,450,29512939
114.0,450,29513389
115.0,450,29513839
116.0,450,29514289
117.0,450,29514739
118.0,450,29515189
119.0,450,29515639
120.0,450,29516089
121.0,441,29516530
122.0,441,29516971
123.0,441,29517412
124.0,3773,29521185
125.0,441,29521626
126.0,441,29522067
127.0,441,29522508
128.0,441,29522949
129.0,441,29523390
130.0,441,29523831
131.0,441,29524272
132.0,441,29524713
133.0,441,29525154
134.0,441,29525595
135.0,441,29526036
136.0,441,29526477
137.0,441,29526918
138.0,441,29527359
139.0,441,29527800
140.0,441,29528241
141.0,441,29528682
142.0,441,29529123
143.0,441,29529564
144.0,441,29530005
145.0,441,29530446
146.0,441,29530887
147.0,441,29531328
148.0,441,29531769
149.0,441,29532210
