Connection: 192.168.0.13 to 192.168.0.0 
Connection: 192.168.0.13 to 192.168.0.8 
Connection: 192.168.0.13 to 192.168.0.2 
Connection: 192.168.0.13 to 192.168.0.14 
Connection: 192.168.0.12 to 192.168.0.3 
Connection: 192.168.0.12 to 192.168.0.2 
Connection: 192.168.0.12 to 192.168.0.19 
Connection: 192.168.0.12 to 192.168.0.5 
Connection: 192.168.0.12 to 192.168.0.7 
Connection: 192.168.0.10 to 192.168.0.4 
Connection: 192.168.0.17 to 192.168.0.4 
Connection: 192.168.0.20 to 192.168.0.11 
Connection: 192.168.0.20 to 192.168.0.15 
Connection: 192.168.0.20 to 192.168.0.16 
Connection: 192.168.0.20 to 192.168.0.1 
Connection: 192.168.0.4 to 192.168.0.13 
Connection: 192.168.0.9 to 192.168.0.12 
Connection: 192.168.0.1 to 192.168.0.18 
Connection: 192.168.0.1 to 192.168.0.14 
Connection: 192.168.0.6 to 192.168.0.12 
Connection: 192.168.0.16 to 192.168.0.22 
Connection: 192.168.0.21 to 192.168.0.2 
