Timestamp,TXperSec,TXTotal,RXperSec,RXTotal
1.0,18,18,18,18
2.0,18,36,18,36
3.0,36,72,76,112
4.0,189,261,189,301
5.0,1395,1656,807,1108
6.0,0,1656,735,1843
7.0,755,2411,20,1863
8.0,18,2429,18,1881
9.0,18,2447,18,1899
10.0,9,2456,9,1908
11.0,18,2474,18,1926
12.0,18,2492,18,1944
13.0,18,2510,18,1962
14.0,18,2528,18,1980
15.0,18,2546,18,1998
16.0,18,2564,18,2016
17.0,18,2582,18,2034
18.0,18,2600,18,2052
19.0,18,2618,18,2070
20.0,27,2645,27,2097
21.0,18,2663,18,2115
22.0,18,2681,18,2133
23.0,18,2699,18,2151
24.0,18,2717,18,2169
25.0,18,2735,18,2187
26.0,18,2753,18,2205
27.0,18,2771,18,2223
28.0,18,2789,18,2241
29.0,18,2807,18,2259
30.0,18,2825,18,2277
31.0,10226,13051,10226,12503
32.0,9818,22869,9818,22321
33.0,9818,32687,9818,32139
34.0,9818,42505,9818,41957
35.0,9818,52323,9818,51775
36.0,9818,62141,9818,61593
37.0,9818,71959,9818,71411
38.0,9809,81768,9809,81220
39.0,9818,91586,9818,91038
40.0,9818,101404,9818,100856
41.0,18,101422,18,100874
42.0,18,101440,18,100892
43.0,18,101458,18,100910
44.0,18,101476,18,100928
45.0,18,101494,18,100946
46.0,18,101512,18,100964
47.0,18,101530,18,100982
48.0,18,101548,18,101000
49.0,18,101566,18,101018
50.0,18,101584,18,101036
51.0,18,101602,18,101054
52.0,18,101620,18,101072
53.0,29,101649,29,101101
54.0,18,101667,18,101119
55.0,18,101685,18,101137
56.0,18,101703,18,101155
57.0,18,101721,18,101173
58.0,18,101739,18,101191
59.0,18,101757,18,101209
60.0,18,101775,18,101227
61.0,10022,111797,10022,111249
62.0,9818,121615,9818,121067
63.0,9818,131433,9818,130885
64.0,9818,141251,9818,140703
65.0,9818,151069,9818,150521
66.0,20026,171095,20026,170547
67.0,19629,190724,19629,190176
68.0,19618,210342,19618,209794
69.0,19618,229960,19618,229412
70.0,19636,249596,19676,249088
71.0,9818,259414,9818,258906
72.0,9818,269232,9818,268724
73.0,9818,279050,9818,278542
74.0,9818,288868,9818,288360
75.0,9829,298697,9818,298178
76.0,18,298715,18,298196
77.0,18,298733,18,298214
78.0,27,298760,27,298241
79.0,29,298789,29,298270
80.0,18,298807,18,298288
81.0,18,298825,18,298306
82.0,18,298843,18,298324
83.0,18,298861,18,298342
84.0,18,298879,18,298360
85.0,18,298897,18,298378
86.0,18,298915,18,298396
87.0,18,298933,18,298414
88.0,18,298951,18,298432
89.0,18,298969,18,298450
90.0,18,298987,18,298468
91.0,20434,319421,20627,319095
92.0,19618,339039,19618,338713
93.0,19618,358657,19618,358331
94.0,19618,378275,19618,377949
95.0,19618,397893,19618,397567
96.0,19618,417511,19618,417185
97.0,19618,437129,19618,436803
98.0,19618,456747,19618,456421
99.0,19618,476365,19618,476039
100.0,19618,495983,19618,495657
101.0,18,496001,18,495675
102.0,18,496019,18,495693
103.0,18,496037,18,495711
104.0,18,496055,18,495729
105.0,18,496073,18,495747
106.0,18,496091,18,495765
107.0,18,496109,18,495783
108.0,18,496127,18,495801
109.0,18,496145,18,495819
110.0,18,496163,18,495837
111.0,18,496181,18,495855
112.0,18,496199,18,495873
113.0,18,496217,18,495891
114.0,18,496235,18,495909
115.0,29,496264,29,495938
116.0,18,496282,18,495956
117.0,18,496300,18,495974
118.0,18,496318,18,495992
119.0,18,496336,18,496010
120.0,18,496354,18,496028
121.0,18,496372,18,496046
122.0,18,496390,18,496064
123.0,18,496408,18,496082
124.0,36,496444,116,496198
125.0,825,497269,825,497023
126.0,691,497960,9,497032
127.0,11,497971,675,497707
128.0,9,497980,9,497716
129.0,9,497989,9,497725
130.0,9,497998,9,497734
131.0,9,498007,9,497743
132.0,9,498016,9,497752
133.0,9,498025,9,497761
134.0,9,498034,9,497770
135.0,20,498054,20,497790
136.0,9,498063,9,497799
137.0,20,498083,20,497819
138.0,9,498092,9,497828
139.0,9,498101,9,497837
140.0,9,498110,9,497846
141.0,9,498119,9,497855
142.0,9,498128,9,497864
143.0,9,498137,9,497873
144.0,9,498146,9,497882
145.0,9,498155,9,497891
146.0,9,498164,9,497900
147.0,9,498173,9,497909
148.0,9,498182,9,497918
149.0,9,498191,9,497927
