Timestamp,TXperSec,TXTotal,RXperSec,RXTotal
1.0,18,18,18,18
2.0,18,36,18,36
3.0,36,72,76,112
4.0,18,90,18,130
5.0,181,271,181,311
6.0,565,836,544,855
7.0,11,847,1485,2340
8.0,20,867,20,2360
9.0,9,876,9,2369
10.0,9,885,9,2378
11.0,9,894,9,2387
12.0,9,903,9,2396
13.0,9,912,9,2405
14.0,9,921,9,2414
15.0,9,930,9,2423
16.0,9,939,9,2432
17.0,9,948,9,2441
18.0,9,957,9,2450
19.0,9,966,9,2459
20.0,9,975,9,2468
21.0,9,984,9,2477
22.0,9,993,9,2486
23.0,9,1002,9,2495
24.0,9,1011,9,2504
25.0,9,1020,9,2513
26.0,9,1029,9,2522
27.0,9,1038,9,2531
28.0,9,1047,9,2540
29.0,9,1056,9,2549
30.0,10002,11058,9,2558
31.0,9,11067,20,2578
32.0,9809,20876,9,2587
33.0,19609,40485,9,2596
34.0,9809,50294,9,2605
35.0,9809,60103,9,2614
36.0,9809,69912,9,2623
37.0,9809,79721,9,2632
38.0,9,79730,9,2641
39.0,9809,89539,9,2650
40.0,9809,99348,9,2659
41.0,9,99357,9,2668
42.0,9,99366,9,2677
43.0,9,99375,9,2686
44.0,9,99384,9,2695
45.0,9,99393,9,2704
46.0,9,99402,9,2713
47.0,9,99411,9,2722
48.0,9,99420,9,2731
49.0,9,99429,9,2740
50.0,9,99438,9,2749
51.0,9,99447,9,2758
52.0,9,99456,9,2767
53.0,9,99465,9,2776
54.0,9,99474,9,2785
55.0,9,99483,9,2794
56.0,9,99492,9,2803
57.0,9,99501,9,2812
58.0,9,99510,9,2821
59.0,9,99519,9,2830
60.0,10002,109521,9,2839
61.0,9809,119330,20,2859
62.0,9809,129139,9,2868
63.0,9809,138948,9,2877
64.0,9809,148757,9,2886
65.0,9809,158566,9,2895
66.0,9875,168441,10967,13862
67.0,9,168450,9809,23671
68.0,9809,178259,9809,33480
69.0,9809,188068,9809,43289
70.0,9809,197877,9809,53098
71.0,9,197886,9809,62907
72.0,9,197895,9809,72716
73.0,9,197904,9809,82525
74.0,9,197913,9809,92334
75.0,9,197922,9809,102143
76.0,9,197931,9,102152
77.0,9,197940,9,102161
78.0,20,197960,20,102181
79.0,9,197969,9,102190
80.0,9,197978,9,102199
81.0,9,197987,9,102208
82.0,9,197996,9,102217
83.0,9,198005,9,102226
84.0,9,198014,9,102235
85.0,9,198023,9,102244
86.0,9,198032,9,102253
87.0,9,198041,9,102262
88.0,9,198050,9,102271
89.0,9,198059,9,102280
90.0,9,198068,9,102289
91.0,10046,208114,20392,122681
92.0,9809,217923,19609,142290
93.0,9809,227732,19609,161899
94.0,9809,237541,19609,181508
95.0,9809,247350,19609,201117
96.0,9809,257159,19609,220726
97.0,9809,266968,19609,240335
98.0,9809,276777,19609,259944
99.0,9809,286586,19609,279553
100.0,9809,296395,19609,299162
101.0,9,296404,9,299171
102.0,9,296413,9,299180
103.0,9,296422,9,299189
104.0,9,296431,9,299198
105.0,9,296440,9,299207
106.0,9,296449,9,299216
107.0,9,296458,9,299225
108.0,9,296467,9,299234
109.0,9,296476,9,299243
110.0,9,296485,9,299252
111.0,9,296494,9,299261
112.0,9,296503,9,299270
113.0,9,296512,9,299279
114.0,9,296521,9,299288
115.0,9,296530,9,299297
116.0,9,296539,9,299306
117.0,9,296548,9,299315
118.0,9,296557,9,299324
119.0,9,296566,9,299333
120.0,9,296575,9,299342
121.0,9,296584,9,299351
122.0,9,296593,9,299360
123.0,9,296602,9,299369
124.0,18,296620,98,299467
125.0,9,296629,9,299476
126.0,1164,297793,1206,300682
127.0,1487,299280,23,300705
128.0,11,299291,1425,302130
129.0,9,299300,9,302139
130.0,9,299309,9,302148
131.0,9,299318,9,302157
132.0,9,299327,9,302166
133.0,9,299336,9,302175
134.0,9,299345,9,302184
135.0,9,299354,9,302193
136.0,9,299363,9,302202
137.0,9,299372,9,302211
138.0,9,299381,9,302220
139.0,9,299390,9,302229
140.0,9,299399,9,302238
141.0,9,299408,9,302247
142.0,9,299417,9,302256
143.0,9,299426,9,302265
144.0,9,299435,9,302274
145.0,9,299444,9,302283
146.0,9,299453,9,302292
147.0,9,299462,9,302301
148.0,9,299471,9,302310
149.0,9,299480,9,302319
