Timestamp,BandwidthPerSec,TotalBandwidth
1.0,184,184
2.0,162,346
3.0,590,936
4.0,3408,4344
5.0,2177,6521
6.0,2664,9185
7.0,184,9369
8.0,162,9531
9.0,184,9715
10.0,162,9877
11.0,173,10050
12.0,162,10212
13.0,184,10396
14.0,162,10558
15.0,173,10731
16.0,162,10893
17.0,184,11077
18.0,162,11239
19.0,184,11423
20.0,162,11585
21.0,184,11769
22.0,162,11931
23.0,184,12115
24.0,162,12277
25.0,184,12461
26.0,162,12623
27.0,184,12807
28.0,162,12969
29.0,184,13153
30.0,30141,43294
31.0,60434,103728
32.0,88362,192090
33.0,117784,309874
34.0,88362,398236
35.0,88373,486609
36.0,88362,574971
37.0,88373,663344
38.0,58962,722306
39.0,88384,810690
40.0,88362,899052
41.0,184,899236
42.0,162,899398
43.0,184,899582
44.0,162,899744
45.0,184,899928
46.0,162,900090
47.0,184,900274
48.0,162,900436
49.0,184,900620
50.0,162,900782
51.0,184,900966
52.0,162,901128
53.0,184,901312
54.0,162,901474
55.0,184,901658
56.0,162,901820
57.0,184,902004
58.0,162,902166
59.0,184,902350
60.0,30141,932491
61.0,89823,1022314
62.0,88362,1110676
63.0,88384,1199060
64.0,88362,1287422
65.0,108370,1395792
66.0,160237,1556029
67.0,147184,1703213
68.0,176562,1879775
69.0,176584,2056359
70.0,176562,2232921
71.0,88384,2321305
72.0,88362,2409667
73.0,88384,2498051
74.0,88362,2586413
75.0,88373,2674786
76.0,162,2674948
77.0,184,2675132
78.0,162,2675294
79.0,184,2675478
80.0,162,2675640
81.0,184,2675824
82.0,162,2675986
83.0,184,2676170
84.0,162,2676332
85.0,184,2676516
86.0,162,2676678
87.0,184,2676862
88.0,162,2677024
89.0,184,2677208
90.0,162,2677370
91.0,90220,2767590
92.0,88362,2855952
93.0,88384,2944336
94.0,88362,3032698
95.0,88384,3121082
96.0,88362,3209444
97.0,88384,3297828
98.0,88362,3386190
99.0,88384,3474574
100.0,88362,3562936
101.0,184,3563120
102.0,162,3563282
103.0,184,3563466
104.0,162,3563628
105.0,184,3563812
106.0,162,3563974
107.0,184,3564158
108.0,162,3564320
109.0,184,3564504
110.0,162,3564666
111.0,184,3564850
112.0,162,3565012
113.0,184,3565196
114.0,162,3565358
115.0,184,3565542
116.0,162,3565704
117.0,184,3565888
118.0,162,3566050
119.0,184,3566234
120.0,162,3566396
121.0,157,3566553
122.0,135,3566688
123.0,157,3566845
124.0,696,3567541
125.0,4280,3571821
126.0,1478,3573299
127.0,838,3574137
128.0,126,3574263
129.0,137,3574400
130.0,126,3574526
131.0,148,3574674
132.0,126,3574800
133.0,148,3574948
134.0,126,3575074
135.0,148,3575222
136.0,126,3575348
137.0,137,3575485
138.0,126,3575611
139.0,148,3575759
140.0,126,3575885
141.0,148,3576033
142.0,126,3576159
143.0,148,3576307
144.0,126,3576433
145.0,148,3576581
146.0,126,3576707
147.0,148,3576855
148.0,126,3576981
149.0,148,3577129
