Timestamp,TXperSec,TXTotal,RXperSec,RXTotal
1.0,29,29,29,29
2.0,18,47,18,47
3.0,36,83,76,123
4.0,278,361,264,387
5.0,406,767,420,807
6.0,555,1322,9,816
7.0,22,1344,596,1412
8.0,9,1353,9,1421
9.0,9,1362,9,1430
10.0,9,1371,9,1439
11.0,9,1380,9,1448
12.0,9,1389,9,1457
13.0,9,1398,9,1466
14.0,9,1407,9,1475
15.0,9,1416,9,1484
16.0,9,1425,9,1493
17.0,9,1434,9,1502
18.0,9,1443,9,1511
19.0,9,1452,9,1520
20.0,9,1461,9,1529
21.0,9,1470,9,1538
22.0,9,1479,9,1547
23.0,9,1488,9,1556
24.0,9,1497,9,1565
25.0,9,1506,9,1574
26.0,9,1515,9,1583
27.0,9,1524,9,1592
28.0,9,1533,9,1601
29.0,9,1542,9,1610
30.0,9,1551,9,1619
31.0,20,1571,10002,11621
32.0,9,1580,9809,21430
33.0,9,1589,9809,31239
34.0,9,1598,9809,41048
35.0,9,1607,9809,50857
36.0,9,1616,9809,60666
37.0,9,1625,9809,70475
38.0,9,1634,9809,80284
39.0,9,1643,9809,90093
40.0,9,1652,9809,99902
41.0,9,1661,9,99911
42.0,9,1670,9,99920
43.0,9,1679,9,99929
44.0,9,1688,9,99938
45.0,9,1697,9,99947
46.0,9,1706,9,99956
47.0,9,1715,9,99965
48.0,9,1724,9,99974
49.0,9,1733,9,99983
50.0,9,1742,9,99992
51.0,9,1751,9,100001
52.0,9,1760,9,100010
53.0,9,1769,9,100019
54.0,9,1778,9,100028
55.0,9,1787,9,100037
56.0,9,1796,9,100046
57.0,9,1805,9,100055
58.0,9,1814,9,100064
59.0,9,1823,9,100073
