Timestamp,TXperSec,TXTotal,RXperSec,RXTotal
1.0,9,9,0,0
2.0,9,18,0,0
3.0,160,178,244,244
4.0,150,328,223,467
5.0,462,790,448,915
6.0,0,790,0,915
7.0,11,801,585,1500
8.0,9,810,9,1509
9.0,9,819,9,1518
10.0,9,828,9,1527
11.0,9,837,9,1536
12.0,9,846,9,1545
13.0,9,855,9,1554
14.0,9,864,9,1563
15.0,9,873,9,1572
16.0,9,882,9,1581
17.0,9,891,9,1590
18.0,9,900,9,1599
19.0,9,909,9,1608
20.0,9,918,9,1617
21.0,9,927,9,1626
22.0,9,936,9,1635
23.0,9,945,9,1644
24.0,9,954,9,1653
25.0,9,963,9,1662
26.0,9,972,9,1671
27.0,9,981,9,1680
28.0,9,990,9,1689
29.0,9,999,9,1698
30.0,9,1008,9,1707
31.0,42,1050,10206,11913
32.0,9,1059,9809,21722
33.0,9,1068,9809,31531
34.0,9,1077,9809,41340
35.0,9,1086,9809,51149
36.0,9,1095,9809,60958
37.0,9,1104,9809,70767
38.0,9,1113,9809,80576
39.0,9,1122,9809,90385
40.0,9,1131,9809,100194
41.0,9,1140,9,100203
42.0,9,1149,9,100212
43.0,9,1158,9,100221
44.0,9,1167,9,100230
45.0,9,1176,9,100239
46.0,9,1185,9,100248
47.0,9,1194,9,100257
48.0,9,1203,9,100266
49.0,9,1212,9,100275
50.0,9,1221,9,100284
51.0,9,1230,9,100293
52.0,9,1239,9,100302
53.0,9,1248,9,100311
54.0,9,1257,9,100320
55.0,20,1277,20,100340
56.0,9,1286,9,100349
57.0,9,1295,9,100358
58.0,9,1304,9,100367
59.0,9,1313,9,100376
