Timestamp,TXperSec,TXTotal,RXperSec,RXTotal
1.0,18,18,9,9
2.0,18,36,9,18
3.0,138,174,58,76
4.0,301,475,336,412
5.0,420,895,392,804
6.0,657,1552,9,813
7.0,1181,2733,596,1409
8.0,18,2751,18,1427
9.0,18,2769,18,1445
10.0,18,2787,18,1463
11.0,18,2805,18,1481
12.0,18,2823,18,1499
13.0,18,2841,18,1517
14.0,18,2859,18,1535
15.0,18,2877,18,1553
16.0,18,2895,18,1571
17.0,18,2913,18,1589
18.0,18,2931,18,1607
19.0,18,2949,18,1625
20.0,18,2967,18,1643
21.0,18,2985,18,1661
22.0,18,3003,18,1679
23.0,18,3021,18,1697
24.0,18,3039,18,1715
25.0,18,3057,18,1733
26.0,18,3075,18,1751
27.0,18,3093,18,1769
28.0,18,3111,18,1787
29.0,18,3129,18,1805
30.0,18,3147,10011,11816
31.0,10022,13169,29,11845
32.0,9818,22987,9818,21663
33.0,9818,32805,19618,41281
34.0,9818,42623,9818,51099
35.0,9818,52441,9818,60917
36.0,9818,62259,9818,70735
37.0,9818,72077,9818,80553
38.0,9818,81895,18,80571
39.0,9818,91713,9818,90389
40.0,9818,101531,9818,100207
41.0,29,101560,29,100236
42.0,18,101578,18,100254
43.0,18,101596,18,100272
44.0,18,101614,18,100290
45.0,18,101632,18,100308
46.0,18,101650,18,100326
47.0,18,101668,18,100344
48.0,18,101686,18,100362
49.0,18,101704,18,100380
50.0,18,101722,18,100398
51.0,18,101740,18,100416
52.0,18,101758,18,100434
53.0,18,101776,18,100452
54.0,18,101794,18,100470
55.0,18,101812,18,100488
56.0,18,101830,18,100506
57.0,18,101848,18,100524
58.0,18,101866,18,100542
59.0,18,101884,18,100560
