Timestamp,BandwidthPerSec,TotalBandwidth
1.0,297,297
2.0,1925,2222
3.0,225,2447
4.0,225,2672
5.0,225,2897
6.0,225,3122
7.0,225,3347
8.0,225,3572
9.0,225,3797
10.0,225,4022
11.0,225,4247
12.0,225,4472
13.0,225,4697
14.0,225,4922
15.0,225,5147
16.0,225,5372
17.0,225,5597
18.0,225,5822
19.0,225,6047
20.0,225,6272
21.0,225,6497
22.0,225,6722
23.0,225,6947
24.0,225,7172
25.0,225,7397
26.0,225,7622
27.0,225,7847
28.0,225,8072
29.0,225,8297
30.0,10216,18513
31.0,240200,258713
32.0,245225,503938
33.0,255025,758963
34.0,245225,1004188
35.0,245225,1249413
36.0,245225,1494638
37.0,245225,1739863
38.0,235425,1975288
39.0,245225,2220513
40.0,245225,2465738
41.0,225,2465963
42.0,225,2466188
43.0,225,2466413
44.0,225,2466638
45.0,225,2466863
46.0,225,2467088
47.0,225,2467313
48.0,225,2467538
49.0,225,2467763
50.0,225,2467988
51.0,225,2468213
52.0,225,2468438
53.0,225,2468663
54.0,225,2468888
55.0,225,2469113
56.0,225,2469338
57.0,225,2469563
58.0,225,2469788
59.0,225,2470013
60.0,10216,2480229
61.0,250000,2730229
62.0,245225,2975454
63.0,245225,3220679
64.0,245225,3465904
65.0,255216,3721120
66.0,485200,4206320
67.0,480425,4686745
68.0,490225,5176970
69.0,490225,5667195
70.0,490225,6157420
71.0,245225,6402645
72.0,245225,6647870
73.0,245225,6893095
74.0,245225,7138320
75.0,245225,7383545
76.0,225,7383770
77.0,225,7383995
78.0,225,7384220
79.0,225,7384445
80.0,225,7384670
81.0,225,7384895
82.0,225,7385120
83.0,225,7385345
84.0,225,7385570
85.0,225,7385795
86.0,225,7386020
87.0,225,7386245
88.0,225,7386470
89.0,225,7386695
90.0,225,7386920
91.0,500157,7887077
92.0,490225,8377302
93.0,490225,8867527
94.0,490225,9357752
95.0,490225,9847977
96.0,490225,10338202
97.0,490225,10828427
98.0,490225,11318652
99.0,490225,11808877
100.0,490225,12299102
101.0,225,12299327
102.0,225,12299552
103.0,225,12299777
104.0,225,12300002
105.0,225,12300227
106.0,225,12300452
107.0,225,12300677
108.0,225,12300902
109.0,225,12301127
110.0,225,12301352
111.0,225,12301577
112.0,225,12301802
113.0,225,12302027
114.0,225,12302252
115.0,225,12302477
116.0,225,12302702
117.0,225,12302927
118.0,225,12303152
119.0,225,12303377
120.0,225,12303602
121.0,216,12303818
122.0,216,12304034
123.0,1848,12305882
124.0,216,12306098
125.0,216,12306314
126.0,216,12306530
127.0,216,12306746
128.0,216,12306962
129.0,216,12307178
130.0,216,12307394
131.0,216,12307610
132.0,216,12307826
133.0,216,12308042
134.0,216,12308258
135.0,216,12308474
136.0,216,12308690
137.0,216,12308906
138.0,216,12309122
139.0,216,12309338
140.0,216,12309554
141.0,216,12309770
142.0,216,12309986
143.0,216,12310202
144.0,216,12310418
145.0,216,12310634
146.0,216,12310850
147.0,216,12311066
148.0,216,12311282
149.0,216,12311498
